projectClock/simulation/qsim/projectClock.msim.vcd
$comment
	File created using the following command:
		vcd file projectClock.msim.vcd -direction
$end
$date
	Fri May 29 15:22:55 2020
$end
$version
	ModelSim Version 10.1d
$end
$timescale
	1ps
$end
$scope module projectClock_vlg_vec_tst $end
$var reg 1 ! clk $end
$var reg 1 " edit_pin $end
$var reg 1 # keypad_0 $end
$var reg 1 $ keypad_1 $end
$var reg 1 % keypad_2 $end
$var wire 1 & b_v [6] $end
$var wire 1 ' b_v [5] $end
$var wire 1 ( b_v [4] $end
$var wire 1 ) b_v [3] $end
$var wire 1 * b_v [2] $end
$var wire 1 + b_v [1] $end
$var wire 1 , b_v [0] $end
$var wire 1 - COM $end
$var wire 1 . ppop [3] $end
$var wire 1 / ppop [2] $end
$var wire 1 0 ppop [1] $end
$var wire 1 1 ppop [0] $end
$var wire 1 2 S [2] $end
$var wire 1 3 S [1] $end
$var wire 1 4 S [0] $end
$var wire 1 5 testpin [3] $end
$var wire 1 6 testpin [2] $end
$var wire 1 7 testpin [1] $end
$var wire 1 8 testpin [0] $end
$var wire 1 9 sampler $end
$scope module i1 $end
$var wire 1 : gnd $end
$var wire 1 ; vcc $end
$var wire 1 < unknown $end
$var tri1 1 = devclrn $end
$var tri1 1 > devpor $end
$var tri1 1 ? devoe $end
$var wire 1 @ edit_pin~input_o $end
$var wire 1 A COM~output_o $end
$var wire 1 B b_v[6]~output_o $end
$var wire 1 C b_v[5]~output_o $end
$var wire 1 D b_v[4]~output_o $end
$var wire 1 E b_v[3]~output_o $end
$var wire 1 F b_v[2]~output_o $end
$var wire 1 G b_v[1]~output_o $end
$var wire 1 H b_v[0]~output_o $end
$var wire 1 I ppop[3]~output_o $end
$var wire 1 J ppop[2]~output_o $end
$var wire 1 K ppop[1]~output_o $end
$var wire 1 L ppop[0]~output_o $end
$var wire 1 M S[2]~output_o $end
$var wire 1 N S[1]~output_o $end
$var wire 1 O S[0]~output_o $end
$var wire 1 P testpin[3]~output_o $end
$var wire 1 Q testpin[2]~output_o $end
$var wire 1 R testpin[1]~output_o $end
$var wire 1 S testpin[0]~output_o $end
$var wire 1 T clk~input_o $end
$var wire 1 U inst1|inst|5~0_combout $end
$var wire 1 V inst1|inst|5~q $end
$var wire 1 W inst1|inst|3~0_combout $end
$var wire 1 X inst1|inst|3~q $end
$var wire 1 Y inst1|inst|1~0_combout $end
$var wire 1 Z inst1|inst|1~q $end
$var wire 1 [ inst1|inst|2~0_combout $end
$var wire 1 \ inst1|inst|2~q $end
$var wire 1 ] inst1|inst1|5~0_combout $end
$var wire 1 ^ inst1|inst1|5~q $end
$var wire 1 _ inst1|inst1|3~0_combout $end
$var wire 1 ` inst1|inst1|3~q $end
$var wire 1 a inst1|inst1|1~0_combout $end
$var wire 1 b inst1|inst1|1~q $end
$var wire 1 c inst1|inst1|2~0_combout $end
$var wire 1 d inst1|inst1|2~q $end
$var wire 1 e inst1|inst2|5~0_combout $end
$var wire 1 f inst1|inst2|5~q $end
$var wire 1 g inst1|inst2|3~0_combout $end
$var wire 1 h inst1|inst2|3~q $end
$var wire 1 i inst1|inst2|1~0_combout $end
$var wire 1 j inst1|inst2|1~q $end
$var wire 1 k inst1|inst2|2~0_combout $end
$var wire 1 l inst1|inst2|2~q $end
$var wire 1 m inst1|inst3|5~0_combout $end
$var wire 1 n inst1|inst3|5~q $end
$var wire 1 o inst1|inst3|3~0_combout $end
$var wire 1 p inst1|inst3|3~q $end
$var wire 1 q inst1|inst3|1~0_combout $end
$var wire 1 r inst1|inst3|1~q $end
$var wire 1 s inst1|inst3|2~0_combout $end
$var wire 1 t inst1|inst3|2~q $end
$var wire 1 u inst|temp[0]~2_combout $end
$var wire 1 v inst|temp[1]~0_combout $end
$var wire 1 w inst|temp[2]~1_combout $end
$var wire 1 x inst1|inst4|3~0_combout $end
$var wire 1 y inst1|inst4|3~q $end
$var wire 1 z inst1|inst4|1~0_combout $end
$var wire 1 { inst1|inst4|1~q $end
$var wire 1 | inst1|inst4|2~0_combout $end
$var wire 1 } inst1|inst4|2~q $end
$var wire 1 ~ inst1|inst5|5~0_combout $end
$var wire 1 !! inst1|inst5|5~q $end
$var wire 1 "! inst1|inst5|3~0_combout $end
$var wire 1 #! inst1|inst5|3~q $end
$var wire 1 $! inst1|inst5|1~0_combout $end
$var wire 1 %! inst1|inst5|1~q $end
$var wire 1 &! inst1|inst5|2~0_combout $end
$var wire 1 '! inst1|inst5|2~q $end
$var wire 1 (! inst1|inst6|5~0_combout $end
$var wire 1 )! inst1|inst6|5~q $end
$var wire 1 *! inst1|inst6|3~0_combout $end
$var wire 1 +! inst1|inst6|3~q $end
$var wire 1 ,! inst1|inst6|1~0_combout $end
$var wire 1 -! inst1|inst6|1~q $end
$var wire 1 .! inst1|inst6|2~0_combout $end
$var wire 1 /! inst1|inst6|2~q $end
$var wire 1 0! inst7|Mux1~0_combout $end
$var wire 1 1! inst7|Mux0~0_combout $end
$var wire 1 2! inst7|Mux2~0_combout $end
$var wire 1 3! inst7|Mux3~0_combout $end
$var wire 1 4! inst7|carry~0_combout $end
$var wire 1 5! inst7|carry~q $end
$var wire 1 6! inst5|Mux0~0_combout $end
$var wire 1 7! inst5|Mux1~0_combout $end
$var wire 1 8! inst5|Mux2~0_combout $end
$var wire 1 9! inst5|Mux3~0_combout $end
$var wire 1 :! inst5|carry_out~q $end
$var wire 1 ;! inst8|Mux2~0_combout $end
$var wire 1 <! inst8|Mux1~0_combout $end
$var wire 1 =! inst8|Mux3~0_combout $end
$var wire 1 >! inst8|Mux0~0_combout $end
$var wire 1 ?! inst8|carry~0_combout $end
$var wire 1 @! inst8|carry~q $end
$var wire 1 A! inst9|Mux0~0_combout $end
$var wire 1 B! inst9|Mux1~0_combout $end
$var wire 1 C! inst9|Mux2~0_combout $end
$var wire 1 D! inst9|Mux3~0_combout $end
$var wire 1 E! inst9|carry_out~q $end
$var wire 1 F! inst13|Mux2~0_combout $end
$var wire 1 G! inst13|K[0]~0_combout $end
$var wire 1 H! inst13|K[1]~1_combout $end
$var wire 1 I! inst13|Mux1~0_combout $end
$var wire 1 J! inst13|Mux3~0_combout $end
$var wire 1 K! inst13|Mux0~0_combout $end
$var wire 1 L! inst12|SIGNALOUT~9_combout $end
$var wire 1 M! inst12|SIGNALOUT~7_combout $end
$var wire 1 N! inst12|SIGNALOUT~8_combout $end
$var wire 1 O! inst12|SIGNALOUT~1_combout $end
$var wire 1 P! inst13|carry_out~0_combout $end
$var wire 1 Q! inst13|carry_out~q $end
$var wire 1 R! inst15|Mux1~0_combout $end
$var wire 1 S! inst15|Mux0~0_combout $end
$var wire 1 T! inst12|SIGNALOUT[1]~4_combout $end
$var wire 1 U! inst12|SIGNALOUT[1]~5_combout $end
$var wire 1 V! inst12|SIGNALOUT[1]~6_combout $end
$var wire 1 W! inst12|SIGNALOUT[0]~0_combout $end
$var wire 1 X! inst12|SIGNALOUT[0]~2_combout $end
$var wire 1 Y! inst12|SIGNALOUT[0]~3_combout $end
$var wire 1 Z! inst3|Mux0~0_combout $end
$var wire 1 [! inst3|Mux1~0_combout $end
$var wire 1 \! inst3|Mux2~0_combout $end
$var wire 1 ]! inst3|Mux3~0_combout $end
$var wire 1 ^! inst3|Mux4~0_combout $end
$var wire 1 _! inst3|Mux5~0_combout $end
$var wire 1 `! inst3|Mux6~0_combout $end
$var wire 1 a! keypad_0~input_o $end
$var wire 1 b! keypad_1~input_o $end
$var wire 1 c! keypad_2~input_o $end
$var wire 1 d! inst17|Mux0~0_combout $end
$var wire 1 e! inst17|Mux1~0_combout $end
$var wire 1 f! inst17|Mux2~0_combout $end
$var wire 1 g! inst17|Mux3~0_combout $end
$var wire 1 h! inst21|Mux3~0_combout $end
$var wire 1 i! inst8|temp [3] $end
$var wire 1 j! inst8|temp [2] $end
$var wire 1 k! inst8|temp [1] $end
$var wire 1 l! inst8|temp [0] $end
$var wire 1 m! inst9|temp [3] $end
$var wire 1 n! inst9|temp [2] $end
$var wire 1 o! inst9|temp [1] $end
$var wire 1 p! inst9|temp [0] $end
$var wire 1 q! inst13|K [1] $end
$var wire 1 r! inst13|K [0] $end
$var wire 1 s! inst21|temp [3] $end
$var wire 1 t! inst21|temp [2] $end
$var wire 1 u! inst21|temp [1] $end
$var wire 1 v! inst21|temp [0] $end
$var wire 1 w! inst13|temp [3] $end
$var wire 1 x! inst13|temp [2] $end
$var wire 1 y! inst13|temp [1] $end
$var wire 1 z! inst13|temp [0] $end
$var wire 1 {! inst|temp [2] $end
$var wire 1 |! inst|temp [1] $end
$var wire 1 }! inst|temp [0] $end
$var wire 1 ~! inst7|temp [3] $end
$var wire 1 !" inst7|temp [2] $end
$var wire 1 "" inst7|temp [1] $end
$var wire 1 #" inst7|temp [0] $end
$var wire 1 $" inst5|temp [3] $end
$var wire 1 %" inst5|temp [2] $end
$var wire 1 &" inst5|temp [1] $end
$var wire 1 '" inst5|temp [0] $end
$var wire 1 (" inst15|temp [3] $end
$var wire 1 )" inst15|temp [2] $end
$var wire 1 *" inst15|temp [1] $end
$var wire 1 +" inst15|temp [0] $end
$upscope $end
$upscope $end
$enddefinitions $end
#0
$dumpvars
0!
x"
1#
1$
1%
0,
1+
1*
1)
1(
1'
1&
1-
01
00
0/
0.
04
03
02
08
07
06
05
x9
0:
1;
x<
1=
1>
1?
x@
1A
1B
1C
1D
1E
1F
1G
0H
0I
0J
0K
0L
0M
0N
0O
0P
0Q
0R
0S
0T
1U
0V
0W
0X
0Y
0Z
0[
0\
1]
0^
0_
0`
0a
0b
0c
0d
1e
0f
0g
0h
0i
0j
0k
0l
1m
0n
0o
0p
0q
0r
0s
0t
1u
0v
0w
0x
0y
0z
0{
0|
0}
1~
0!!
0"!
0#!
0$!
0%!
0&!
0'!
1(!
0)!
0*!
0+!
0,!
0-!
0.!
0/!
00!
01!
02!
13!
04!
05!
06!
07!
18!
09!
0:!
0;!
0<!
1=!
0>!
0?!
0@!
0A!
0B!
1C!
0D!
0E!
0F!
0G!
0H!
0I!
1J!
0K!
0L!
0M!
1N!
0O!
0P!
0Q!
1R!
0S!
0T!
0U!
1V!
0W!
0X!
1Y!
1Z!
1[!
1\!
1]!
1^!
1_!
0`!
1a!
1b!
1c!
0d!
0e!
0f!
0g!
1h!
0l!
0k!
0j!
0i!
0p!
0o!
0n!
zm!
0r!
0q!
0v!
0u!
0t!
0s!
0z!
0y!
0x!
0w!
0}!
0|!
0{!
0#"
0""
0!"
0~!
0'"
0&"
0%"
z$"
0+"
0*"
z)"
z("
$end
#10000
1!
1T
09
1V
0U
1W
#20000
0!
0T
19
#30000
1!
1T
09
1X
0V
1U
#40000
0!
0T
19
#50000
0%
1!
0c!
1T
09
1f!
1g!
0h!
1R
1S
17
18
1u!
1v!
1K
1L
10
11
1V
0U
0W
1Y
#60000
0!
0T
19
#70000
1!
1T
09
1Z
0X
0V
1U
#80000
0!
0T
19
#90000
1!
1T
09
1V
0U
1W
#100000
0!
0T
19
#110000
1!
1T
09
1X
0V
1U
#120000
0!
0T
19
#130000
1!
1T
09
1V
0U
0W
0Y
1[
#140000
0!
0T
19
#150000
1%
1!
1c!
1T
09
0f!
0g!
1h!
0R
0S
07
08
0u!
0v!
0K
0L
00
01
1\
0Z
0X
0V
1U
1^
0]
1_
#160000
0!
0T
19
#170000
1!
1T
09
1V
0U
0[
#180000
0!
0T
19
#190000
1!
1T
09
0\
0V
1U
#200000
0!
0T
19
#210000
1!
1T
09
1V
0U
1W
#220000
0!
0T
19
#230000
1!
1T
09
1X
0V
1U
#240000
0!
0T
19
#250000
1!
1T
09
1V
0U
0W
1Y
#260000
0!
0T
19
#270000
1!
1T
09
1Z
0X
0V
1U
#280000
0!
0T
19
#290000
1!
1T
09
1V
0U
1W
#300000
0!
0T
19
#310000
1!
1T
09
1X
0V
1U
#320000
0!
0T
19
#330000
1!
1T
09
1V
0U
0W
0Y
1[
#340000
0!
0T
19
#350000
1!
1T
09
1\
0Z
0X
0V
1U
1`
0^
1]
#360000
0!
0T
19
#370000
1!
1T
09
1V
0U
0[
#380000
0!
0T
19
#390000
1!
1T
09
0\
0V
1U
#400000
0!
0T
19
#410000
1!
1T
09
1V
0U
1W
#420000
0!
0T
19
#430000
1!
1T
09
1X
0V
1U
#440000
0!
0T
19
#450000
1!
1T
09
1V
0U
0W
1Y
#460000
0!
0T
19
#470000
1!
1T
09
1Z
0X
0V
1U
#480000
0!
0T
19
#490000
1!
1T
09
1V
0U
1W
#500000
0!
0T
19
#510000
1!
1T
09
1X
0V
1U
#520000
0!
0T
19
#530000
1!
1T
09
1V
0U
0W
0Y
1[
#540000
0!
0T
19
#550000
1!
1T
09
1\
0Z
0X
0V
1U
1^
0]
0_
1a
#560000
0!
0T
19
#570000
1!
1T
09
1V
0U
0[
#580000
0!
0T
19
#590000
1!
1T
09
0\
0V
1U
#600000
0!
0T
19
#610000
1!
1T
09
1V
0U
1W
#620000
0!
0T
19
#630000
1!
1T
09
1X
0V
1U
#640000
0!
0T
19
#650000
1!
1T
09
1V
0U
0W
1Y
#660000
0!
0T
19
#670000
1!
1T
09
1Z
0X
0V
1U
#680000
0!
0T
19
#690000
1!
1T
09
1V
0U
1W
#700000
0!
0T
19
#710000
1!
1T
09
1X
0V
1U
#720000
0!
0T
19
#730000
1!
1T
09
1V
0U
0W
0Y
1[
#740000
0!
0T
19
#750000
1!
1T
09
1\
0Z
0X
0V
1U
1b
0`
0^
1]
#760000
0!
0T
19
#770000
1!
1T
09
1V
0U
0[
#780000
0!
0T
19
#790000
1!
1T
09
0\
0V
1U
#800000
0!
0T
19
#810000
1!
1T
09
1V
0U
1W
#820000
0!
0T
19
#830000
1!
1T
09
1X
0V
1U
#840000
0!
0T
19
#850000
1!
1T
09
1V
0U
0W
1Y
#860000
0!
0T
19
#870000
1!
1T
09
1Z
0X
0V
1U
#880000
0!
0T
19
#890000
1!
1T
09
1V
0U
1W
#900000
0!
0T
19
#910000
1!
1T
09
1X
0V
1U
#920000
0!
0T
19
#930000
1!
1T
09
1V
0U
0W
0Y
1[
#940000
0!
0T
19
#950000
1!
1T
09
1\
0Z
0X
0V
1U
1^
0]
1_
#960000
0!
0T
19
#970000
1!
1T
09
1V
0U
0[
#980000
0!
0T
19
#990000
1!
1T
09
0\
0V
1U
